<?xml version="1.0" encoding="UTF-8" standalone="no"?>
<!-- Created with Inkscape (http://www.inkscape.org/) -->

<svg
   xmlns:osb="http://www.openswatchbook.org/uri/2009/osb"
   xmlns:dc="http://purl.org/dc/elements/1.1/"
   xmlns:cc="http://creativecommons.org/ns#"
   xmlns:rdf="http://www.w3.org/1999/02/22-rdf-syntax-ns#"
   xmlns:svg="http://www.w3.org/2000/svg"
   xmlns="http://www.w3.org/2000/svg"
   xmlns:sodipodi="http://sodipodi.sourceforge.net/DTD/sodipodi-0.dtd"
   xmlns:inkscape="http://www.inkscape.org/namespaces/inkscape"
   width="210mm"
   height="297mm"
   viewBox="0 0 744.09448819 1052.3622047"
   id="svg2"
   version="1.1"
   inkscape:version="0.91 r13725"
   sodipodi:docname="egenPause.svg">
  <defs
     id="defs4">
    <linearGradient
       inkscape:collect="always"
       id="linearGradient5624"
       osb:paint="gradient">
      <stop
         style="stop-color:#000000;stop-opacity:1;"
         offset="0"
         id="stop5626" />
      <stop
         style="stop-color:#000000;stop-opacity:0;"
         offset="1"
         id="stop5628" />
    </linearGradient>
    <linearGradient
       inkscape:collect="always"
       id="linearGradient5588"
       osb:paint="gradient">
      <stop
         style="stop-color:#000000;stop-opacity:1;"
         offset="0"
         id="stop5590" />
      <stop
         style="stop-color:#000000;stop-opacity:0;"
         offset="1"
         id="stop5592" />
    </linearGradient>
  </defs>
  <sodipodi:namedview
     id="base"
     pagecolor="#ffffff"
     bordercolor="#666666"
     borderopacity="1.0"
     inkscape:pageopacity="0.0"
     inkscape:pageshadow="2"
     inkscape:zoom="0.35"
     inkscape:cx="-60.714286"
     inkscape:cy="517.14286"
     inkscape:document-units="px"
     inkscape:current-layer="layer1"
     showgrid="false"
     inkscape:window-width="1825"
     inkscape:window-height="1058"
     inkscape:window-x="87"
     inkscape:window-y="-8"
     inkscape:window-maximized="1" />
  <metadata
     id="metadata7">
    <rdf:RDF>
      <cc:Work
         rdf:about="">
        <dc:format>image/svg+xml</dc:format>
        <dc:type
           rdf:resource="http://purl.org/dc/dcmitype/StillImage" />
        <dc:title></dc:title>
      </cc:Work>
    </rdf:RDF>
  </metadata>
  <g
     inkscape:label="Layer 1"
     inkscape:groupmode="layer"
     id="layer1">
    <ellipse
       style="opacity:1;fill:#000000;fill-opacity:1;fill-rule:evenodd;stroke:#000000;stroke-width:1.96700001;stroke-linecap:butt;stroke-linejoin:miter;stroke-miterlimit:4;stroke-dasharray:none;stroke-opacity:1"
       id="path5646"
       cx="385.71426"
       cy="428.07648"
       rx="231.42857"
       ry="164.28572" />
    <path
       style="fill:none;fill-rule:evenodd;stroke:#000000;stroke-width:1px;stroke-linecap:butt;stroke-linejoin:miter;stroke-opacity:1"
       d="m 308.57143,355.21935 c 2.85714,3.80952 5.71428,7.61905 8.57143,11.42857 0.95238,0 2.1837,-0.67344 2.85714,0 1.42857,1.42857 -1.42857,7.14286 0,8.57143 0.67344,0.67343 2.18371,-0.67344 2.85714,0 0.67344,0.67343 -0.42591,2.00531 0,2.85714 0.60234,1.20468 2.25481,1.65247 2.85715,2.85714 0.85183,1.70367 -1.34687,4.36742 0,5.71429 0.67343,0.67343 2.1837,-0.67344 2.85714,0 0.11497,0.11497 0,10.37932 0,11.42857 0,0.69293 0.0919,8.47954 0,8.57143 -0.67344,0.67343 -2.18371,-0.67344 -2.85714,0 -1.42858,1.42857 1.42857,7.14286 0,8.57143 -0.67344,0.67343 -2.18371,-0.67344 -2.85715,0 -1.42857,1.42857 1.42857,7.14285 0,8.57143 -0.67343,0.67343 -2.1837,-0.67344 -2.85714,0 -0.78178,0.78177 0.77498,9.8786 0,11.42857 -0.60234,1.20467 -2.2548,1.65246 -2.85714,2.85714 -0.56642,1.13283 0.5841,7.98732 0,8.57143 -0.67344,0.67343 -2.18371,-0.67344 -2.85715,0 -0.78177,0.78178 0.77499,9.87861 0,11.42857 -0.60233,1.20468 -2.2548,1.65247 -2.85714,2.85714 -0.77498,1.54997 0.78178,10.6468 0,11.42857 -0.67343,0.67344 -2.18371,-0.67343 -2.85714,0 -0.67344,0.67344 0,1.90477 0,2.85715 0,0.95238 0,1.90476 0,2.85714 0,1.34714 -0.12949,14.15622 0,14.28571 0.67343,0.67344 2.18371,-0.67343 2.85714,0 1.34687,1.34687 -1.34687,4.36742 0,5.71429 0.67344,0.67344 2.18371,-0.67343 2.85714,0 1.34687,1.34687 -1.34687,4.36742 0,5.71429 1.34687,1.34687 4.36742,-1.34687 5.71429,0 0,7.61904 -0.95238,-0.95238 2.85714,2.85714 0.67344,0.67343 -0.67343,2.18371 0,2.85714 0.96349,0.96349 4.7508,-0.96349 5.71429,0 0.67343,0.67344 -0.67344,2.18371 0,2.85714 1.34687,1.34687 4.36741,-1.34687 5.71428,0 0.67344,0.67344 -0.67343,2.18371 0,2.85715 0.67344,0.67343 1.90477,0 2.85715,0 1.49406,0 10.67731,0.37563 11.42857,0 1.20468,-0.60234 1.65246,-2.25481 2.85714,-2.85715 0.85184,-0.42591 2.18371,0.67344 2.85714,0 0.67344,-0.67343 -0.67343,-2.1837 0,-2.85714 0.58411,-0.5841 7.4386,0.56642 8.57143,0 1.20468,-0.60234 1.65247,-2.2548 2.85715,-2.85714 0.85183,-0.42592 2.0053,0.42592 2.85714,0 1.20468,-0.60234 1.65246,-2.25481 2.85714,-2.85714 1.54159,-0.7708 4.1727,0.77079 5.71429,0 2.40935,-1.20468 3.30493,-4.50961 5.71428,-5.71429 0.85184,-0.42592 1.90476,0 2.85715,0 0.95238,-0.95238 1.65246,-2.2548 2.85714,-2.85714 1.70367,-0.85184 4.36741,1.34687 5.71428,0 0.67344,-0.67344 -0.67343,-2.18371 0,-2.85715 1.34687,-1.34687 4.36742,1.34687 5.71429,0 0.67344,-0.67343 -0.67344,-2.1837 0,-2.85714 0.95404,-0.95404 4.76024,0.95405 5.71429,0 0.67343,-0.67343 -0.67344,-2.18371 0,-2.85714 0.96256,-0.96256 4.75172,0.96256 5.71428,0 0.67344,-0.67344 -0.85183,-2.43123 0,-2.85714 1.79578,-0.89789 9.6328,0.89789 11.42857,0 1.20468,-0.60234 1.65247,-2.25481 2.85715,-2.85715 2.28571,-1.14285 6.28571,1.14286 8.57142,0 1.20468,-0.60234 1.65247,-2.2548 2.85715,-2.85714 1.70367,-0.85183 4.01061,0.85184 5.71428,0 0.91731,-0.45865 4.79698,-5.25563 5.71429,-5.71429 0.85183,-0.42591 2.18371,0.67344 2.85714,0 0.67344,-0.67343 -0.67343,-2.1837 0,-2.85714 0.95405,-0.95404 4.76024,0.95405 5.71429,0 0.67343,-0.67343 -0.67344,-2.18371 0,-2.85714 1.34687,-1.34687 4.01061,0.85183 5.71428,0 4.37594,-2.18797 2.23434,-5.09148 5.71429,-8.57143 0.67343,-0.67343 2.00531,0.42592 2.85714,0 9.47595,-9.47595 -2.69374,1.34687 5.71429,-2.85714 11.89074,-5.94537 -3.05439,0.19724 2.85714,-5.71429 1.34687,-1.34687 4.36742,1.34687 5.71429,0 0.67343,-0.67343 -0.42592,-2.00531 0,-2.85714 0.60233,-1.20468 2.2548,-1.65247 2.85714,-2.85714 0.42592,-0.85184 -0.67344,-2.18371 0,-2.85715 0.67343,-0.67343 2.00531,0.42592 2.85714,0 1.20468,-0.60234 1.65247,-2.2548 2.85714,-2.85714 0.85184,-0.42592 2.18371,0.67344 2.85715,0 0.67343,-0.67343 -0.67344,-2.18371 0,-2.85714 0.67343,-0.67344 2.1837,0.67343 2.85714,0 0.67344,-0.67344 -0.67344,-2.18371 0,-2.85715 0.67344,-0.67343 2.18371,0.67344 2.85714,0 0.67344,-0.67343 -0.67343,-2.1837 0,-2.85714 0.67344,-0.67343 1.90476,0 2.85715,0 0.95238,0 1.90476,0 2.85714,0 3.80952,0 7.61905,0 11.42857,0 0.95238,0 2.18371,0.67344 2.85714,0 0.67344,-0.67343 -0.67343,-2.18371 0,-2.85714 0.0919,-0.0919 7.8785,0 8.57143,0 0.69293,0 8.47954,0.0919 8.57143,0 0.28571,-0.28572 0.28571,-8.28572 0,-8.57143 -0.67344,-0.67343 -2.18371,0.67344 -2.85714,0 -0.67344,-0.67343 0.67343,-2.18371 0,-2.85714 -0.67344,-0.67344 -2.00531,0.42592 -2.85715,0 -1.20467,-0.60234 -1.65246,-2.25481 -2.85714,-2.85715 -1.70367,-0.85183 -4.01061,0.85184 -5.71428,0 -1.20468,-0.60233 -1.65247,-2.2548 -2.85715,-2.85714 -1.80248,-0.90124 -12.48323,0.90124 -14.28571,0 -1.20468,-0.60234 -1.57939,-2.43122 -2.85714,-2.85714 -0.71227,-0.23742 -13.9914,0.29432 -14.28572,0 -0.67343,-0.67344 0.67344,-2.18371 0,-2.85714 -0.67343,-0.67344 -1.95363,0.30117 -2.85714,0 -2.02031,-0.67344 -4.20844,-1.3513 -5.71429,-2.85715 -0.67343,-0.67343 0.67344,-2.1837 0,-2.85714 -0.96349,-0.96349 -4.75079,0.96349 -5.71428,0 -0.67344,-0.67343 0.67343,-2.18371 0,-2.85714 -0.94478,-0.94478 -4.76951,0.94478 -5.71429,0 -0.67343,-0.67344 0.67344,-2.18371 0,-2.85715 -0.67343,-0.67343 -1.90476,0 -2.85714,0 -0.95238,0 -1.90476,0 -2.85714,0 -13.33334,0 -26.66667,0 -40,0 -0.69294,0 -8.47955,0.0919 -8.57143,0 -0.67344,-0.67343 0.67343,-2.1837 0,-2.85714 -0.95405,-0.95404 -4.76024,0.95405 -5.71429,0 -0.67343,-0.67343 0.79243,-2.32886 0,-2.85714 -2.50588,-1.67059 -5.64966,-2.1267 -8.57143,-2.85714 -0.92394,-0.23099 -2.1837,0.67343 -2.85714,0 -0.67344,-0.67344 0.67344,-2.18371 0,-2.85715 -1.42857,-1.42857 -7.14286,1.42857 -8.57143,0 0,-7.61904 0.95238,0.95238 -2.85714,-2.85714 -0.67344,-0.67343 0.67343,-2.18371 0,-2.85714 -0.96349,-0.96349 -4.7508,0.96349 -5.71429,0 -0.67343,-0.67344 0,-1.90476 0,-2.85715 -0.95238,0 -2.1837,0.67344 -2.85714,0 -0.67344,-0.67343 0.67344,-2.1837 0,-2.85714 -1.34687,-1.34687 -4.01061,0.85184 -5.71429,0 -1.20467,-0.60234 -1.65246,-2.2548 -2.85714,-2.85714 -0.85183,-0.42592 -2.18371,0.67343 -2.85714,0 -0.67344,-0.67344 0.67343,-2.18371 0,-2.85714 -0.67344,-0.67344 -1.90476,0 -2.85714,0 -1.90477,0 -4.01062,0.85183 -5.71429,0 -0.85184,-0.42592 0.67344,-2.18371 0,-2.85715 -0.67344,-0.67343 -2.18371,0.67344 -2.85714,0 -0.67344,-0.67343 0.67343,-2.1837 0,-2.85714 -0.67344,-0.67343 -2.85715,0.95238 -2.85715,0 0,-0.95238 3.80953,0 2.85715,0 -1.90476,0 -3.80953,0 -5.71429,0 -0.95238,0 -1.90476,0 -2.85714,0 -0.95238,0 -2.18371,-0.67343 -2.85714,0 -0.67344,0.67344 0.67343,2.18371 0,2.85714 -1.34687,1.34687 -4.36742,-1.34687 -5.71429,0 -0.67344,0.67344 0.67344,2.18371 0,2.85715 -0.68752,0.68751 -10.74105,-0.68752 -11.42857,0 -0.67344,0.67343 0.67343,2.1837 0,2.85714 -0.0919,0.0919 -7.8785,0 -8.57143,0 -3.80952,0 -7.61905,0 -11.42857,0 -0.95238,0 -1.90476,0 -2.85714,0 -0.95239,0 -3.08813,0.92394 -2.85715,0 1.03301,-4.13201 8.72598,-8.41688 5.71429,-11.42857 -2.85714,-2.85715 -5.33894,6.14706 -8.57143,8.57143 -0.7619,0.57142 -1.90476,0 -2.85714,0 -5.17877,0 -8.57143,1.40341 -8.57143,-5.71429"
       id="path5648"
       inkscape:connector-curvature="0" />
    <path
       style="fill:none;fill-rule:evenodd;stroke:#000000;stroke-width:1px;stroke-linecap:butt;stroke-linejoin:miter;stroke-opacity:1"
       d="m 294.28571,340.93363 17.14286,208.57143"
       id="path5652"
       inkscape:connector-curvature="0" />
    <rect
       style="opacity:1;fill:#ffffff;fill-opacity:1;fill-rule:evenodd;stroke:#000000;stroke-width:1.96700001;stroke-linecap:butt;stroke-linejoin:miter;stroke-miterlimit:4;stroke-dasharray:none;stroke-opacity:1"
       id="rect5660"
       width="37.142857"
       height="151.42857"
       x="317.14285"
       y="349.50507" />
    <rect
       style="opacity:1;fill:#ffffff;fill-opacity:1;fill-rule:evenodd;stroke:#000000;stroke-width:1.96700001;stroke-linecap:butt;stroke-linejoin:miter;stroke-miterlimit:4;stroke-dasharray:none;stroke-opacity:1"
       id="rect5660-2"
       width="37.142857"
       height="151.42857"
       x="412"
       y="354.07648" />
  </g>
</svg>
